{
	"continental": {
		"random": false,
		"segments": [
			{
				"name": "Morning",
				"startMinute": 0,
				"aeros": [
					"VK_Aeroset.VK_SkyCastle00_AERO"
				]
			},
			{
				"name": "Day",
				"startMinute": 10,
				"aeros": [
					"aen_aeroset.AERO.AEN_C_Misty_Island_Outdoor_AERO"
				]
			},
			{
				"name": "Evening",
				"startMinute": 20,
				"aeros": [
					"atw_aeroset.AERO.SPR_Dawn_Garden_02_AERO"
				]
			},
			{
				"name": "Dusk",
				"startMinute": 30,
				"aeros": [
					"Liar_AERO.AERO.Liar_AERO_02"
				]
			},
			{
				"name": "Night",
				"startMinute": 40,
				"aeros": [
					"ase_aeroset.AERO.ASE_B_MoonCastle_AERO"
				]
			},
			{
				"name": "Dawn",
				"startMinute": 50,
				"aeros": [
					"lobby_ch_select_aero.AERO.Lobby_CH_Select_AERO_Night_02"
				]
			}
		],
		"cycleTime": 60000,
		"blendTime": 20,
		"changeEveryLoad": false,
		"description": "Default preset for this fork of Aerogasm, used in TERA Continental."
	}
}